NOTE: Picked up JDK_JAVA_OPTIONS:  --add-opens=java.base/java.lang=ALL-UNNAMED --add-opens=java.base/java.io=ALL-UNNAMED --add-opens=java.base/java.util=ALL-UNNAMED --add-opens=java.base/java.util.concurrent=ALL-UNNAMED --add-opens=java.rmi/sun.rmi.transport=ALL-UNNAMED
04-Feb-2022 10:54:20.553 INFO [main] org.apache.catalina.startup.VersionLoggerListener.log Server version name:   Apache Tomcat/9.0.58
04-Feb-2022 10:54:20.558 INFO [main] org.apache.catalina.startup.VersionLoggerListener.log Server built:          Jan 15 2022 14:37:38 UTC
04-Feb-2022 10:54:20.558 INFO [main] org.apache.catalina.startup.VersionLoggerListener.log Server version number: 9.0.58.0
04-Feb-2022 10:54:20.559 INFO [main] org.apache.catalina.startup.VersionLoggerListener.log OS Name:               Mac OS X
04-Feb-2022 10:54:20.559 INFO [main] org.apache.catalina.startup.VersionLoggerListener.log OS Version:            12.2
04-Feb-2022 10:54:20.559 INFO [main] org.apache.catalina.startup.VersionLoggerListener.log Architecture:          x86_64
04-Feb-2022 10:54:20.559 INFO [main] org.apache.catalina.startup.VersionLoggerListener.log Java Home:             /Users/mrcisme/Library/Java/JavaVirtualMachines/openjdk-17.0.1/Contents/Home
04-Feb-2022 10:54:20.559 INFO [main] org.apache.catalina.startup.VersionLoggerListener.log JVM Version:           17.0.1+12-39
04-Feb-2022 10:54:20.559 INFO [main] org.apache.catalina.startup.VersionLoggerListener.log JVM Vendor:            Oracle Corporation
04-Feb-2022 10:54:20.559 INFO [main] org.apache.catalina.startup.VersionLoggerListener.log CATALINA_BASE:         /Users/mrcisme/Desktop/assignment4headsfirstdemo/apache-tomcat-9.0.58
04-Feb-2022 10:54:20.560 INFO [main] org.apache.catalina.startup.VersionLoggerListener.log CATALINA_HOME:         /Users/mrcisme/Desktop/assignment4headsfirstdemo/apache-tomcat-9.0.58
04-Feb-2022 10:54:20.607 INFO [main] org.apache.catalina.startup.VersionLoggerListener.log Command line argument: --add-opens=java.base/java.lang=ALL-UNNAMED
04-Feb-2022 10:54:20.608 INFO [main] org.apache.catalina.startup.VersionLoggerListener.log Command line argument: --add-opens=java.base/java.io=ALL-UNNAMED
04-Feb-2022 10:54:20.608 INFO [main] org.apache.catalina.startup.VersionLoggerListener.log Command line argument: --add-opens=java.base/java.util=ALL-UNNAMED
04-Feb-2022 10:54:20.608 INFO [main] org.apache.catalina.startup.VersionLoggerListener.log Command line argument: --add-opens=java.base/java.util.concurrent=ALL-UNNAMED
04-Feb-2022 10:54:20.609 INFO [main] org.apache.catalina.startup.VersionLoggerListener.log Command line argument: --add-opens=java.rmi/sun.rmi.transport=ALL-UNNAMED
04-Feb-2022 10:54:20.609 INFO [main] org.apache.catalina.startup.VersionLoggerListener.log Command line argument: -Djava.util.logging.config.file=/Users/mrcisme/Desktop/assignment4headsfirstdemo/apache-tomcat-9.0.58/conf/logging.properties
04-Feb-2022 10:54:20.609 INFO [main] org.apache.catalina.startup.VersionLoggerListener.log Command line argument: -Djava.util.logging.manager=org.apache.juli.ClassLoaderLogManager
04-Feb-2022 10:54:20.610 INFO [main] org.apache.catalina.startup.VersionLoggerListener.log Command line argument: -Djdk.tls.ephemeralDHKeySize=2048
04-Feb-2022 10:54:20.610 INFO [main] org.apache.catalina.startup.VersionLoggerListener.log Command line argument: -Djava.protocol.handler.pkgs=org.apache.catalina.webresources
04-Feb-2022 10:54:20.610 INFO [main] org.apache.catalina.startup.VersionLoggerListener.log Command line argument: -Dorg.apache.catalina.security.SecurityListener.UMASK=0027
04-Feb-2022 10:54:20.610 INFO [main] org.apache.catalina.startup.VersionLoggerListener.log Command line argument: -Dignore.endorsed.dirs=
04-Feb-2022 10:54:20.610 INFO [main] org.apache.catalina.startup.VersionLoggerListener.log Command line argument: -Dcatalina.base=/Users/mrcisme/Desktop/assignment4headsfirstdemo/apache-tomcat-9.0.58
04-Feb-2022 10:54:20.611 INFO [main] org.apache.catalina.startup.VersionLoggerListener.log Command line argument: -Dcatalina.home=/Users/mrcisme/Desktop/assignment4headsfirstdemo/apache-tomcat-9.0.58
04-Feb-2022 10:54:20.611 INFO [main] org.apache.catalina.startup.VersionLoggerListener.log Command line argument: -Djava.io.tmpdir=/Users/mrcisme/Desktop/assignment4headsfirstdemo/apache-tomcat-9.0.58/temp
04-Feb-2022 10:54:20.612 INFO [main] org.apache.catalina.core.AprLifecycleListener.lifecycleEvent The Apache Tomcat Native library which allows using OpenSSL was not found on the java.library.path: [/Users/mrcisme/Library/Java/Extensions:/Library/Java/Extensions:/Network/Library/Java/Extensions:/System/Library/Java/Extensions:/usr/lib/java:.]
04-Feb-2022 10:54:21.155 INFO [main] org.apache.coyote.AbstractProtocol.init Initializing ProtocolHandler ["http-nio-8080"]
04-Feb-2022 10:54:21.211 INFO [main] org.apache.catalina.startup.Catalina.load Server initialization in [905] milliseconds
04-Feb-2022 10:54:21.273 INFO [main] org.apache.catalina.core.StandardService.startInternal Starting service [Catalina]
04-Feb-2022 10:54:21.273 INFO [main] org.apache.catalina.core.StandardEngine.startInternal Starting Servlet engine: [Apache Tomcat/9.0.58]
04-Feb-2022 10:54:21.280 INFO [main] org.apache.catalina.startup.HostConfig.deployDirectory Deploying web application directory [/Users/mrcisme/Desktop/assignment4headsfirstdemo/apache-tomcat-9.0.58/webapps/docs]
04-Feb-2022 10:54:21.591 INFO [main] org.apache.catalina.startup.HostConfig.deployDirectory Deployment of web application directory [/Users/mrcisme/Desktop/assignment4headsfirstdemo/apache-tomcat-9.0.58/webapps/docs] has finished in [310] ms
04-Feb-2022 10:54:21.591 INFO [main] org.apache.catalina.startup.HostConfig.deployDirectory Deploying web application directory [/Users/mrcisme/Desktop/assignment4headsfirstdemo/apache-tomcat-9.0.58/webapps/manager]
04-Feb-2022 10:54:21.678 INFO [main] org.apache.catalina.startup.HostConfig.deployDirectory Deployment of web application directory [/Users/mrcisme/Desktop/assignment4headsfirstdemo/apache-tomcat-9.0.58/webapps/manager] has finished in [86] ms
04-Feb-2022 10:54:21.678 INFO [main] org.apache.catalina.startup.HostConfig.deployDirectory Deploying web application directory [/Users/mrcisme/Desktop/assignment4headsfirstdemo/apache-tomcat-9.0.58/webapps/examples]
04-Feb-2022 10:54:22.118 INFO [main] org.apache.catalina.startup.HostConfig.deployDirectory Deployment of web application directory [/Users/mrcisme/Desktop/assignment4headsfirstdemo/apache-tomcat-9.0.58/webapps/examples] has finished in [439] ms
04-Feb-2022 10:54:22.118 INFO [main] org.apache.catalina.startup.HostConfig.deployDirectory Deploying web application directory [/Users/mrcisme/Desktop/assignment4headsfirstdemo/apache-tomcat-9.0.58/webapps/ROOT]
04-Feb-2022 10:54:22.161 INFO [main] org.apache.catalina.startup.HostConfig.deployDirectory Deployment of web application directory [/Users/mrcisme/Desktop/assignment4headsfirstdemo/apache-tomcat-9.0.58/webapps/ROOT] has finished in [43] ms
04-Feb-2022 10:54:22.161 INFO [main] org.apache.catalina.startup.HostConfig.deployDirectory Deploying web application directory [/Users/mrcisme/Desktop/assignment4headsfirstdemo/apache-tomcat-9.0.58/webapps/host-manager]
04-Feb-2022 10:54:22.190 INFO [main] org.apache.catalina.startup.HostConfig.deployDirectory Deployment of web application directory [/Users/mrcisme/Desktop/assignment4headsfirstdemo/apache-tomcat-9.0.58/webapps/host-manager] has finished in [29] ms
04-Feb-2022 10:54:22.194 INFO [main] org.apache.coyote.AbstractProtocol.start Starting ProtocolHandler ["http-nio-8080"]
04-Feb-2022 10:54:22.206 INFO [main] org.apache.catalina.startup.Catalina.start Server startup in [994] milliseconds
04-Feb-2022 10:55:10.755 INFO [main] org.apache.catalina.core.StandardServer.await A valid shutdown command was received via the shutdown port. Stopping the Server instance.
04-Feb-2022 10:55:10.757 INFO [main] org.apache.coyote.AbstractProtocol.pause Pausing ProtocolHandler ["http-nio-8080"]
04-Feb-2022 10:55:10.761 INFO [main] org.apache.catalina.core.StandardService.stopInternal Stopping service [Catalina]
04-Feb-2022 10:55:10.801 INFO [main] org.apache.coyote.AbstractProtocol.stop Stopping ProtocolHandler ["http-nio-8080"]
04-Feb-2022 10:55:10.814 INFO [main] org.apache.coyote.AbstractProtocol.destroy Destroying ProtocolHandler ["http-nio-8080"]
